…
## What is mean total number of steps taken per day?

Ignore the missing values in the dataset.
Calculate the total number of steps taken per day


```r
df<-backup%>%filter(!is.na(steps))%>%
  group_by(date)%>%
  summarize(tot_steps=sum(steps))
df
```

```
## # A tibble: 53 x 2
##    date       tot_steps
##    <fct>          <int>
##  1 2012-10-02       126
##  2 2012-10-03     11352
##  3 2012-10-04     12116
##  4 2012-10-05     13294
##  5 2012-10-06     15420
##  6 2012-10-07     11015
##  7 2012-10-09     12811
##  8 2012-10-10      9900
##  9 2012-10-11     10304
## 10 2012-10-12     17382
## # … with 43 more rows
```
…
